…
``` r
babynames %>% 
  mutate(percent = round(100*prop,2))
```

    # A tibble: 1,924,665 × 6
        year sex   name          n   prop percent
       <dbl> <chr> <chr>     <int>  <dbl>   <dbl>
     1  1880 F     Mary       7065 0.0724    7.24
     2  1880 F     Anna       2604 0.0267    2.67
     3  1880 F     Emma       2003 0.0205    2.05
     4  1880 F     Elizabeth  1939 0.0199    1.99
     5  1880 F     Minnie     1746 0.0179    1.79
     6  1880 F     Margaret   1578 0.0162    1.62
     7  1880 F     Ida        1472 0.0151    1.51
     8  1880 F     Alice      1414 0.0145    1.45
     9  1880 F     Bertha     1320 0.0135    1.35
    10  1880 F     Sarah      1288 0.0132    1.32
    # … with 1,924,655 more rows
…
Fill in the blanks to: Rank each name *within its year and sex*.

*(Hint: Be sure to remove each `_` before running the code)*

``` r
babynames %>% 
  group_by(year, sex) %>% 
  mutate(rank = min_rank(desc(prop))) %>% 
  group_by(name) %>% 
  summarise(avg_rank = mean(rank)) %>% 
  arrange(avg_rank)
```

    # A tibble: 97,310 × 2
       name      avg_rank
       <chr>        <dbl>
     1 Jessie        238.
     2 Christop      241 
     3 Leslie        396.
     4 Marion        489.
     5 Cecelia       491.
     6 Francis       505.
     7 Helena        510.
     8 Jean          524.
     9 Conrad        526.
    10 Guadalupe     530.
    # … with 97,300 more rows
…
